INDEX VERSION 1.131+C:\work\01_sts_practice\0520\.metadata\.plugins\org.eclipse.jdt.core
2046081930.index
1947409.index
771031637.index
489274673.index
4104165087.index
3417947420.index
1569951580.index
1178828296.index
513378816.index
1038382329.index
2700859168.index
796428629.index
3300114400.index
3350936725.index
2830155250.index
2845027683.index
3250364815.index
1756117044.index
886732220.index
519483857.index
1147978554.index
2328546804.index
4112193763.index
2584995513.index
1175261659.index
2587318929.index
51815948.index
3382055091.index
3786811040.index
3734002007.index
3163402592.index
3493311328.index
422121084.index
187256032.index
2364091722.index
3581367044.index
3935296499.index
1104344173.index
2268897849.index
238463394.index
978714631.index
2215664829.index
3683642764.index
4293121274.index
1632344829.index
3427336907.index
3241728575.index
661237751.index
3914130346.index
3697055518.index
452372706.index
2723950212.index
1333816619.index
2601218718.index
1135813939.index
1742660200.index
2844673887.index
487658524.index
3769847657.index
2491636046.index
269129384.index
859460087.index
151724844.index
744924412.index
4265637336.index
1216938404.index
842452410.index
3312171817.index
3291428781.index
3598939378.index
3070596095.index
3969752025.index
3414036368.index
1231166787.index
467141092.index
542107666.index
4239260236.index
693327228.index
3640185208.index
3045251023.index
3439867018.index
1833663902.index
490095789.index
289946463.index
3757944043.index
2596095606.index
572205563.index
1745951186.index
1896553789.index
1426660128.index
3141717746.index
3519837536.index
95448632.index
2339980129.index
4265368220.index
1433431718.index
269404069.index
2082875368.index
1667350685.index
2633314554.index
4114397887.index
2057811008.index
75078645.index
2872321697.index
352777813.index
4196632065.index
2565676227.index
112030932.index
2927924067.index
4248479164.index
2491791996.index
3969466391.index
1134293356.index
3637840312.index
3016323589.index
3372681524.index
3025348992.index
1294009400.index
2254036578.index
1703909295.index
1897611489.index
2689040247.index
1001038056.index
4244799525.index
182408259.index
516592743.index
2067534320.index
977583413.index
2023648770.index
3782495142.index
1501290340.index
3393059463.index
1415381335.index
4092954878.index
484519820.index
1748537361.index
1865047367.index
3594762165.index
1012472344.index
1162904545.index
595675714.index
1797956762.index
223572663.index
2414104047.index
1492637987.index
986311839.index
2124909745.index
3735983514.index
797253117.index
3851138002.index
3478387016.index
3088305503.index
3142208551.index
2587315883.index
3049456127.index
3247951619.index
999213636.index
3574763613.index
362160669.index
1360243505.index
4116952848.index
2234791483.index
1456538275.index
2637757373.index
366066763.index
3292558795.index
3478797439.index
1304020368.index
163285198.index
186373812.index
129799362.index
2258293995.index
740664566.index
2064914026.index
359434657.index
4275890549.index
2243377117.index
4059419779.index
3938638958.index
3245242457.index
1822454006.index
3117361981.index
623199582.index
3842116134.index
1292227914.index
1050170412.index
372860995.index
2006491719.index
1630559467.index
382595383.index
3257990798.index
358116404.index
1940089317.index
1886322384.index
1247772439.index
3214355479.index
332818618.index
2011351499.index
2454894678.index
3113885121.index
1408547183.index
1381698421.index
4035749791.index
2256578351.index
3131637495.index
999717590.index
1026750010.index
79598221.index
121643303.index
602477620.index
4070948796.index
3101306673.index
3716199546.index
363400724.index
3485701445.index
2559543144.index
103538335.index
868582672.index
2479895717.index
6294043.index
1756882740.index
2707495191.index
1773385166.index
1062768237.index
2370512280.index
3928460210.index
529002041.index
1949857955.index
666785538.index
2024525542.index
3261918490.index
1370021080.index
115480000.index
2006451172.index
4105916176.index
222994388.index
2065184003.index
1395521627.index
2782268766.index
857034516.index
2744163483.index
1517772196.index
2602505339.index
3619085502.index
3855824969.index
157222992.index
2491538245.index
819793093.index
2504480377.index
3051447809.index
20341414.index
3226184215.index
4139794275.index
4045286300.index
99389859.index
1740883624.index
726251458.index
1527337232.index
1666835289.index
1516945999.index
603090385.index
1030004906.index
900413342.index
1716862087.index
1174207229.index
114257404.index
1137100002.index
2414755783.index
3666691526.index
358699001.index
444776420.index
3506617143.index
2138209155.index
1902200628.index
522846740.index
2775098281.index
1410061501.index
2517097687.index
3527366155.index
1365033840.index
